…
```
## # A tibble: 17,692 x 71
##    country commname spgroup spgroupname spcode sciname region unit  X1950
##    <chr>   <chr>      <dbl> <chr>       <chr>  <chr>    <dbl> <chr> <chr>
##  1 Albania Angelsh…      38 Sharks, ra… 10903… Squati…     37 Quan… ...  
##  2 Albania Atlanti…      36 Tunas, bon… 17501… Sarda …     37 Quan… ...  
##  3 Albania Barracu…      37 Miscellane… 17710… Sphyra…     37 Quan… ...  
##  4 Albania Blue an…      45 Shrimps, p… 22802… Ariste…     37 Quan… ...  
##  5 Albania Blue wh…      32 Cods, hake… 14804… Microm…     37 Quan… ...  
##  6 Albania Bluefish      37 Miscellane… 17020… Pomato…     37 Quan… ...  
##  7 Albania Bogue         33 Miscellane… 17039… Boops …     37 Quan… ...  
##  8 Albania Caramot…      45 Shrimps, p… 22801… Penaeu…     37 Quan… ...  
##  9 Albania Catshar…      38 Sharks, ra… 10801… Scylio…     37 Quan… ...  
## 10 Albania Common …      57 Squids, cu… 32102… Sepia …     37 Quan… ...  
## # … with 17,682 more rows, and 62 more variables: X1951 <chr>,
## #   X1952 <chr>, X1953 <chr>, X1954 <chr>, X1955 <chr>, X1956 <chr>,
## #   X1957 <chr>, X1958 <chr>, X1959 <chr>, X1960 <chr>, X1961 <chr>,
## #   X1962 <chr>, X1963 <chr>, X1964 <chr>, X1965 <chr>, X1966 <chr>,
## #   X1967 <chr>, X1968 <chr>, X1969 <chr>, X1970 <chr>, X1971 <chr>,
## #   X1972 <chr>, X1973 <chr>, X1974 <chr>, X1975 <chr>, X1976 <chr>,
## #   X1977 <chr>, X1978 <chr>, X1979 <chr>, X1980 <chr>, X1981 <chr>,
## #   X1982 <chr>, X1983 <chr>, X1984 <chr>, X1985 <chr>, X1986 <chr>,
## #   X1987 <chr>, X1988 <chr>, X1989 <chr>, X1990 <chr>, X1991 <chr>,
…
5. We need to tidy the data using gather(). The code below will not run. I have added a bit of code that will prevent you from needing to type in each year from 1950-2012 but you need to complete the remainder.

```r
fisheries_tidy <- 
  fisheries %>% 
  gather(num_range('X',1950:2012), key='year', value='catch') ## we know have the year gathered in a single column 
fisheries_tidy ## the gather function created a "year" column as the key that's specifcally assigned to a  corresponding "value"
```

```
## # A tibble: 1,114,596 x 10
##    country commname spgroup spgroupname spcode sciname region unit  year 
##    <chr>   <chr>      <dbl> <chr>       <chr>  <chr>    <dbl> <chr> <chr>
##  1 Albania Angelsh…      38 Sharks, ra… 10903… Squati…     37 Quan… X1950
##  2 Albania Atlanti…      36 Tunas, bon… 17501… Sarda …     37 Quan… X1950
##  3 Albania Barracu…      37 Miscellane… 17710… Sphyra…     37 Quan… X1950
##  4 Albania Blue an…      45 Shrimps, p… 22802… Ariste…     37 Quan… X1950
##  5 Albania Blue wh…      32 Cods, hake… 14804… Microm…     37 Quan… X1950
##  6 Albania Bluefish      37 Miscellane… 17020… Pomato…     37 Quan… X1950
##  7 Albania Bogue         33 Miscellane… 17039… Boops …     37 Quan… X1950
##  8 Albania Caramot…      45 Shrimps, p… 22801… Penaeu…     37 Quan… X1950
##  9 Albania Catshar…      38 Sharks, ra… 10801… Scylio…     37 Quan… X1950
## 10 Albania Common …      57 Squids, cu… 32102… Sepia …     37 Quan… X1950
## # … with 1,114,586 more rows, and 1 more variable: catch <chr>
```
…
```
## Warning in evalq(as.numeric(str_replace(catch, c(" F", "...", "-"),
## replacement = "")), : NAs introduced by coercion
```

8. Are the data tidy? Why?
The dates are organized into a new column called year and each observation has its own row.

```r
fisheries_tidy
```

```
## # A tibble: 1,114,596 x 10
##    country commname spgroup spgroupname spcode sciname region unit   year
##    <chr>   <chr>      <dbl> <chr>       <chr>  <chr>    <dbl> <chr> <dbl>
##  1 Albania Angelsh…      38 Sharks, ra… 10903… Squati…     37 Quan…  1950
##  2 Albania Atlanti…      36 Tunas, bon… 17501… Sarda …     37 Quan…  1950
##  3 Albania Barracu…      37 Miscellane… 17710… Sphyra…     37 Quan…  1950
##  4 Albania Blue an…      45 Shrimps, p… 22802… Ariste…     37 Quan…  1950
##  5 Albania Blue wh…      32 Cods, hake… 14804… Microm…     37 Quan…  1950
##  6 Albania Bluefish      37 Miscellane… 17020… Pomato…     37 Quan…  1950
##  7 Albania Bogue         33 Miscellane… 17039… Boops …     37 Quan…  1950
##  8 Albania Caramot…      45 Shrimps, p… 22801… Penaeu…     37 Quan…  1950
##  9 Albania Catshar…      38 Sharks, ra… 10801… Scylio…     37 Quan…  1950
## 10 Albania Common …      57 Squids, cu… 32102… Sepia …     37 Quan…  1950
## # … with 1,114,586 more rows, and 1 more variable: catch <dbl>
```

9. You are a fisheries scientist studying cephalopod catch during 2012. Identify the top five consumers (by country) of cephalopods (don't worry about species for now). Restrict the data frame only to our variables of interest.

```r
fisheries_tidy %>%
  select(sciname, country, year, catch) %>%
  filter( year==2012, sciname=="Cephalopoda")%>% 
  arrange(desc(catch))
```

```
## # A tibble: 23 x 4
##    sciname     country                   year catch
##    <chr>       <chr>                    <dbl> <dbl>
##  1 Cephalopoda India                     2012 82456
##  2 Cephalopoda China                     2012 61821
##  3 Cephalopoda India                     2012 14388
##  4 Cephalopoda Madagascar                2012  6206
##  5 Cephalopoda Mozambique                2012  2150
##  6 Cephalopoda Taiwan Province of China  2012  1050
##  7 Cephalopoda Somalia                   2012   600
##  8 Cephalopoda Mauritania                2012   107
##  9 Cephalopoda Italy                     2012    66
## 10 Cephalopoda France                    2012    27
## # … with 13 more rows
```
…
