…
Mammals Sleep
For this assignment, we are going to use built-in data on mammal sleep patterns.


```r
msleep
```

```
## # A tibble: 83 x 11
##    name  genus vore  order conservation sleep_total sleep_rem sleep_cycle
##    <chr> <chr> <chr> <chr> <chr>              <dbl>     <dbl>       <dbl>
##  1 Chee… Acin… carni Carn… lc                  12.1      NA        NA    
##  2 Owl … Aotus omni  Prim… <NA>                17         1.8      NA    
##  3 Moun… Aplo… herbi Rode… nt                  14.4       2.4      NA    
##  4 Grea… Blar… omni  Sori… lc                  14.9       2.3       0.133
##  5 Cow   Bos   herbi Arti… domesticated         4         0.7       0.667
##  6 Thre… Brad… herbi Pilo… <NA>                14.4       2.2       0.767
##  7 Nort… Call… carni Carn… vu                   8.7       1.4       0.383
##  8 Vesp… Calo… <NA>  Rode… <NA>                 7        NA        NA    
##  9 Dog   Canis carni Carn… domesticated        10.1       2.9       0.333
## 10 Roe … Capr… herbi Arti… lc                   3        NA        NA    
## # … with 73 more rows, and 3 more variables: awake <dbl>, brainwt <dbl>,
## #   bodywt <dbl>
```
…
3. Make a new data frame focused on body weight, but be sure to indicate the common name and genus of each mammal.

```r
msleep %>%
  select(bodywt, genus, name)
```

```
## # A tibble: 83 x 3
##     bodywt genus       name                      
##      <dbl> <chr>       <chr>                     
##  1  50     Acinonyx    Cheetah                   
##  2   0.48  Aotus       Owl monkey                
##  3   1.35  Aplodontia  Mountain beaver           
##  4   0.019 Blarina     Greater short-tailed shrew
##  5 600     Bos         Cow                       
##  6   3.85  Bradypus    Three-toed sloth          
##  7  20.5   Callorhinus Northern fur seal         
##  8   0.045 Calomys     Vesper mouse              
##  9  14     Canis       Dog                       
## 10  14.8   Capreolus   Roe deer                  
## # … with 73 more rows
```

4. We are interested in two groups; small and large mammals. Let’s define small as less than or equal to 1kg body weight and large as greater than or equal to 200kg body weight. For our study, we are interested in body weight and sleep total Make two new dataframes (large and small) based on these parameters.

```r
 Small_mammals <- ## Small mammal data frame
  msleep %>% filter(bodywt <= 1) %>%
  select(genus, vore, order, bodywt, sleep_total)
Small_mammals %>%
  arrange(desc(bodywt))
```

```
## # A tibble: 36 x 5
##    genus        vore  order           bodywt sleep_total
##    <chr>        <chr> <chr>            <dbl>       <dbl>
##  1 Cricetomys   omni  Rodentia         1             8.3
##  2 Spermophilus herbi Rodentia         0.92         16.6
##  3 Tenrec       omni  Afrosoricida     0.9          15.6
##  4 Erinaceus    omni  Erinaceomorpha   0.77         10.1
##  5 Saimiri      omni  Primates         0.743         9.6
##  6 Cavis        herbi Rodentia         0.728         9.4
##  7 Paraechinus  <NA>  Erinaceomorpha   0.55         10.3
##  8 Aotus        omni  Primates         0.48         17  
##  9 Chinchilla   herbi Rodentia         0.42         12.5
## 10 Lutreolina   carni Didelphimorphia  0.37         19.4
## # … with 26 more rows
```
…
